<?xml version="1.0" encoding="utf-8"?>
<COLLADA xmlns="http://www.collada.org/2005/11/COLLADASchema" version="1.4.1">
  <asset>
    <contributor>
      <author>Blender User</author>
      <authoring_tool>Blender 2.78.0 commit date:2016-10-24, commit time:12:20, hash:e8299c8</authoring_tool>
    </contributor>
    <created>2017-02-17T21:53:51</created>
    <modified>2017-02-17T21:53:51</modified>
    <unit name="meter" meter="1"/>
    <up_axis>Z_UP</up_axis>
  </asset>
  <library_images/>
  <library_effects>
    <effect id="Material-effect">
      <profile_COMMON>
        <technique sid="common">
          <phong>
            <emission>
              <color sid="emission">0 0 0 1</color>
            </emission>
            <ambient>
              <color sid="ambient">0 0 0 1</color>
            </ambient>
            <diffuse>
              <color sid="diffuse">0.64 0.64 0.64 1</color>
            </diffuse>
            <specular>
              <color sid="specular">0.5 0.5 0.5 1</color>
            </specular>
            <shininess>
              <float sid="shininess">50</float>
            </shininess>
            <index_of_refraction>
              <float sid="index_of_refraction">1</float>
            </index_of_refraction>
          </phong>
        </technique>
      </profile_COMMON>
    </effect>
  </library_effects>
  <library_materials>
    <material id="Material-material" name="Material">
      <instance_effect url="#Material-effect"/>
    </material>
  </library_materials>
  <library_geometries>
    <geometry id="Cube-mesh" name="Cube">
      <mesh>
        <source id="Cube-mesh-positions">
          <float_array id="Cube-mesh-positions-array" count="24">1.427618 0.2768931 -0.2791438 1.427618 -0.2768931 -0.2791438 -1.427618 -0.2768931 -0.2791438 -1.427618 0.2768932 -0.2791438 1.427619 0.276893 0.2791438 1.427617 -0.2768933 0.2791438 -1.427619 -0.2768931 0.2791438 -1.427618 0.2768931 0.2791438</float_array>
          <technique_common>
            <accessor source="#Cube-mesh-positions-array" count="8" stride="3">
              <param name="X" type="float"/>
              <param name="Y" type="float"/>
              <param name="Z" type="float"/>
            </accessor>
          </technique_common>
        </source>
        <source id="Cube-mesh-normals">
          <float_array id="Cube-mesh-normals-array" count="36">0 0 -1 0 0 1 1 0 -1.28116e-6 0 -1 -2.99137e-7 -1 1.15673e-6 -8.54106e-7 0 1 1.49568e-7 0 0 -1 0 0 1 1 -2.69903e-6 1.49469e-6 0 -1 0 -1 1.5423e-6 -6.4058e-7 0 1 0</float_array>
          <technique_common>
            <accessor source="#Cube-mesh-normals-array" count="12" stride="3">
              <param name="X" type="float"/>
              <param name="Y" type="float"/>
              <param name="Z" type="float"/>
            </accessor>
          </technique_common>
        </source>
        <source id="Cube-mesh-map-0">
          <float_array id="Cube-mesh-map-0-array" count="72">0.8602001 0.1397999 0.1398 7.49058e-5 0.8602001 7.49058e-5 0.1397997 0.4203855 0.8601998 0.2806607 0.8602001 0.4203859 0.9999249 0.2806609 0.8602001 0.1397999 0.9999251 0.1398001 0.8601998 0.2806607 0.1397997 0.1398 0.8602001 0.1397999 0.1397997 0.1398 7.49058e-5 0.2806603 7.51173e-5 0.1397999 0.8601998 0.5612466 0.1397997 0.4203855 0.8602001 0.4203859 0.8602001 0.1397999 0.1397997 0.1398 0.1398 7.49058e-5 0.1397997 0.4203855 0.1397996 0.2806605 0.8601998 0.2806607 0.9999249 0.2806609 0.8601998 0.2806607 0.8602001 0.1397999 0.8601998 0.2806607 0.1397996 0.2806605 0.1397997 0.1398 0.1397997 0.1398 0.1397996 0.2806605 7.49058e-5 0.2806603 0.8601998 0.5612466 0.1397997 0.561246 0.1397997 0.4203855</float_array>
          <technique_common>
            <accessor source="#Cube-mesh-map-0-array" count="36" stride="2">
              <param name="S" type="float"/>
              <param name="T" type="float"/>
            </accessor>
          </technique_common>
        </source>
        <vertices id="Cube-mesh-vertices">
          <input semantic="POSITION" source="#Cube-mesh-positions"/>
        </vertices>
        <polylist material="Material-material" count="12">
          <input semantic="VERTEX" source="#Cube-mesh-vertices" offset="0"/>
          <input semantic="NORMAL" source="#Cube-mesh-normals" offset="1"/>
          <input semantic="TEXCOORD" source="#Cube-mesh-map-0" offset="2" set="0"/>
          <vcount>3 3 3 3 3 3 3 3 3 3 3 3 </vcount>
          <p>1 0 0 3 0 1 0 0 2 7 1 3 5 1 4 4 1 5 4 2 6 1 2 7 0 2 8 5 3 9 2 3 10 1 3 11 2 4 12 7 4 13 3 4 14 0 5 15 7 5 16 4 5 17 1 6 18 2 6 19 3 6 20 7 7 21 6 7 22 5 7 23 4 8 24 5 8 25 1 8 26 5 9 27 6 9 28 2 9 29 2 10 30 6 10 31 7 10 32 0 11 33 3 11 34 7 11 35</p>
        </polylist>
      </mesh>
    </geometry>
  </library_geometries>
  <library_controllers/>
  <library_visual_scenes>
    <visual_scene id="Scene" name="Scene">
      <node id="Cube" name="Cube" type="NODE">
        <matrix sid="transform">1 0 0 -0.1005765 0 1 0 -0.006713986 0 0 1 -0.0406663 0 0 0 1</matrix>
        <instance_geometry url="#Cube-mesh" name="Cube">
          <bind_material>
            <technique_common>
              <instance_material symbol="Material-material" target="#Material-material"/>
            </technique_common>
          </bind_material>
        </instance_geometry>
      </node>
    </visual_scene>
  </library_visual_scenes>
  <scene>
    <instance_visual_scene url="#Scene"/>
  </scene>
</COLLADA>